{
  "page": 1,
  "total_results": 22,
  "total_pages": 5,
  "data": [
    "1",
    "2",
    "3",
    "4",
    "5"
  ]
}
